{
    "workflowApiVersion": "1.1",
    "metaData": {
        "icon": "images/sms.png",
        "iconSmall": "images/smsSmall.png",
        "category": "message"
    },
    "type": "REST",
    "lang": {
        "en-US": {
            "name": "S1QA3_1080440_RestActivity",
            "description": "S1QA3_1080440_RestActivity"
        }
    },
    "arguments": {
        "execute": {
            "inArguments": [],
            "outArguments": [],
            "url": "https://ptsv2.com/t/S1QA3_1080440_RestActivity_exe/post",
            "verb": "POST",
            "body": "{\"Email\": \"%%emailAddr%%\", \"First Name\": \"%%FirstName%%\", \"Last Name\": \"%%LastName%%\"}",
            "header": "",
            "useJwt": false,
            "customerKey" : "4b80975c-97f6-42f1-9710-c734d84c9ecf",
            "timeout": 10000
             
        }
    },
    "configurationArguments": {
        "applicationExtensionKey": "4b80975c-97f6-42f1-9710-c734d84c9ecf",
        "save": {
            "url": "https://ptsv2.com/t/S1QA3_1080440_RestActivity_save/post",
            "body": "{\"Email\": \"%%emailAddr%%\", \"First Name\": \"%%FirstName%%\", \"Last Name\": \"%%LastName%%\"}",
            "header": "",
            "verb": "POST",
            "useJwt": false
        },
        "publish": {
             "url": "https://ptsv2.com/t/S1QA3_1080440_RestActivity_pub/post",
            "verb": "POST",
            "body": "{\"Email\": \"%%emailAddr%%\", \"First Name\": \"%%FirstName%%\", \"Last Name\": \"%%LastName%%\"}",
            "header": "",
            "useJwt": false
        },
            "unpublish": {
            "url": "https://ptsv2.com/t/S1QA3_1080440_RestActivity_unsub/post",
            "verb": "POST",
            "body": "{\"Email\": \"%%emailAddr%%\", \"First Name\": \"%%FirstName%%\", \"Last Name\": \"%%LastName%%\"}",
            "header": "",
            "useJwt": false
        },
        "validate": {
            "url": "https://ptsv2.com/t/S1QA3_1080440_RestActivity_val/post",
            "verb": "POST",
            "body": "{\"Email\": \"%%emailAddr%%\", \"First Name\": \"%%FirstName%%\", \"Last Name\": \"%%LastName%%\"}",
            "header": "",
            "useJwt": false
        }
    },
    "wizardSteps": [
        { "label": "Step 1", "key": "step1" },
        { "label": "Step 2", "key": "step2" },
        { "label": "Step 3", "key": "step3" },
        { "label": "Step 4", "key": "step4", "active": false }
    ],
    "userInterfaces": {
        "configModal": {
            "height": 200,
            "width": 300,
            "fullscreen": true
        }
    }
}